Lab2/tutorial2/simulation/qsim/tutorial2.msim.vcd
$comment
	File created using the following command:
		vcd file tutorial2.msim.vcd -direction
$end
$date
	Thu Feb 08 09:19:34 2024
$end
$version
	ModelSim Version 10.5b
$end
$timescale
	1ps
$end

$scope module counter_vlg_vec_tst $end
$var reg 1 ! clk $end
$var reg 1 " reset_n $end
$var reg 1 # start_n $end
$var reg 1 $ stop_n $end
$var wire 1 % ms_count [19] $end
$var wire 1 & ms_count [18] $end
$var wire 1 ' ms_count [17] $end
$var wire 1 ( ms_count [16] $end
$var wire 1 ) ms_count [15] $end
$var wire 1 * ms_count [14] $end
$var wire 1 + ms_count [13] $end
$var wire 1 , ms_count [12] $end
$var wire 1 - ms_count [11] $end
$var wire 1 . ms_count [10] $end
$var wire 1 / ms_count [9] $end
$var wire 1 0 ms_count [8] $end
$var wire 1 1 ms_count [7] $end
$var wire 1 2 ms_count [6] $end
$var wire 1 3 ms_count [5] $end
$var wire 1 4 ms_count [4] $end
$var wire 1 5 ms_count [3] $end
$var wire 1 6 ms_count [2] $end
$var wire 1 7 ms_count [1] $end
$var wire 1 8 ms_count [0] $end

$scope module i1 $end
$var wire 1 9 gnd $end
$var wire 1 : vcc $end
$var wire 1 ; unknown $end
$var tri1 1 < devclrn $end
$var tri1 1 = devpor $end
$var tri1 1 > devoe $end
$var wire 1 ? ~QUARTUS_CREATED_GND~I_combout $end
$var wire 1 @ clk~input_o $end
$var wire 1 A clk~inputCLKENA0_outclk $end
$var wire 1 B ms_count[0]~0_combout $end
$var wire 1 C reset_n~input_o $end
$var wire 1 D stop_n~input_o $end
$var wire 1 E start_n~input_o $end
$var wire 1 F always0~0_combout $end
$var wire 1 G ms_count[0]~reg0_q $end
$var wire 1 H Add0~1_sumout $end
$var wire 1 I ms_count[1]~reg0_q $end
$var wire 1 J Add0~2 $end
$var wire 1 K Add0~5_sumout $end
$var wire 1 L ms_count[2]~reg0_q $end
$var wire 1 M Add0~6 $end
$var wire 1 N Add0~9_sumout $end
$var wire 1 O ms_count[3]~reg0_q $end
$var wire 1 P Add0~10 $end
$var wire 1 Q Add0~13_sumout $end
$var wire 1 R ms_count[4]~reg0_q $end
$var wire 1 S Add0~14 $end
$var wire 1 T Add0~17_sumout $end
$var wire 1 U ms_count[5]~reg0_q $end
$var wire 1 V Add0~18 $end
$var wire 1 W Add0~21_sumout $end
$var wire 1 X ms_count[6]~reg0_q $end
$var wire 1 Y Add0~22 $end
$var wire 1 Z Add0~25_sumout $end
$var wire 1 [ ms_count[7]~reg0_q $end
$var wire 1 \ Add0~26 $end
$var wire 1 ] Add0~29_sumout $end
$var wire 1 ^ ms_count[8]~reg0_q $end
$var wire 1 _ Add0~30 $end
$var wire 1 ` Add0~33_sumout $end
$var wire 1 a ms_count[9]~reg0_q $end
$var wire 1 b Add0~34 $end
$var wire 1 c Add0~37_sumout $end
$var wire 1 d ms_count[10]~reg0_q $end
$var wire 1 e Add0~38 $end
$var wire 1 f Add0~41_sumout $end
$var wire 1 g ms_count[11]~reg0_q $end
$var wire 1 h Add0~42 $end
$var wire 1 i Add0~45_sumout $end
$var wire 1 j ms_count[12]~reg0_q $end
$var wire 1 k Add0~46 $end
$var wire 1 l Add0~49_sumout $end
$var wire 1 m ms_count[13]~reg0_q $end
$var wire 1 n Add0~50 $end
$var wire 1 o Add0~53_sumout $end
$var wire 1 p ms_count[14]~reg0_q $end
$var wire 1 q Add0~54 $end
$var wire 1 r Add0~57_sumout $end
$var wire 1 s ms_count[15]~reg0_q $end
$var wire 1 t Add0~58 $end
$var wire 1 u Add0~61_sumout $end
$var wire 1 v ms_count[16]~reg0_q $end
$var wire 1 w Add0~62 $end
$var wire 1 x Add0~65_sumout $end
$var wire 1 y ms_count[17]~reg0_q $end
$var wire 1 z Add0~66 $end
$var wire 1 { Add0~69_sumout $end
$var wire 1 | ms_count[18]~reg0_q $end
$var wire 1 } Add0~70 $end
$var wire 1 ~ Add0~73_sumout $end
$var wire 1 !! ms_count[19]~reg0_q $end
$upscope $end
$upscope $end
$enddefinitions $end
#0
$dumpvars
0!
1"
0#
0$
08
07
06
05
04
03
02
01
00
0/
0.
0-
0,
0+
0*
0)
0(
0'
0&
0%
09
1:
x;
1<
1=
1>
0?
0@
0A
1B
1C
0D
0E
0F
0G
0H
0I
0J
0K
0L
0M
0N
0O
0P
0Q
0R
0S
0T
0U
0V
0W
0X
0Y
0Z
0[
0\
0]
0^
0_
0`
0a
0b
0c
0d
0e
0f
0g
0h
0i
0j
0k
0l
0m
0n
0o
0p
0q
0r
0s
0t
0u
0v
0w
0x
0y
0z
0{
0|
0}
0~
0!!
$end
#5000
1!
1@
1A
#10000
1#
1$
0!
1E
1D
0@
0A
#15000
1!
1@
1A
#20000
0!
0@
0A
#25000
1!
1@
1A
#30000
0!
0@
0A
#35000
1!
1@
1A
#40000
0!
0@
0A
#45000
1!
1@
1A
#50000
0!
0@
0A
#55000
1!
1@
1A
#60000
0!
0@
0A
#65000
1!
1@
1A
#70000
0!
0@
0A
#75000
1!
1@
1A
#80000
0!
0@
0A
#85000
1!
1@
1A
#90000
0!
0@
0A
#95000
1!
1@
1A
#100000
0!
0@
0A
#105000
1!
1@
1A
#110000
0!
0@
0A
#115000
1!
1@
1A
#120000
0!
0@
0A
#125000
1!
1@
1A
#130000
0!
0@
0A
#135000
1!
1@
1A
#140000
0#
0!
0E
0@
0A
1F
#145000
1!
1@
1A
1G
18
0B
1H
#150000
0!
0@
0A
#155000
1!
1@
1A
1I
0G
08
17
1B
#160000
0!
0@
0A
#165000
1!
1@
1A
1G
18
1J
0B
0H
1K
#170000
0!
0@
0A
#175000
1!
1@
1A
1L
0I
0G
08
07
16
0J
1B
1M
0K
0M
1K
1N
0N
#180000
0!
0@
0A
#185000
1!
1@
1A
1G
18
0B
1H
#190000
0!
0@
0A
#195000
1!
1@
1A
1I
0G
08
17
1B
#200000
0!
0@
0A
#205000
1!
1@
1A
1G
18
1J
0B
0H
1M
0K
1N
#210000
0!
0@
0A
#215000
1!
1@
1A
1O
0L
0I
0G
08
07
06
15
0J
1B
0M
1P
1K
0N
0P
0K
1N
1Q
0Q
#220000
0!
0@
0A
#225000
1!
1@
1A
1G
18
0B
1H
#230000
0!
0@
0A
#235000
1!
1@
1A
1I
0G
08
17
1B
#240000
0!
0@
0A
#245000
1!
1@
1A
1G
18
1J
0B
0H
1K
#250000
0!
0@
0A
#255000
1!
1@
1A
1L
0I
0G
08
07
16
0J
1B
1M
0K
0M
1P
1K
0N
0P
1N
1Q
0Q
#260000
0!
0@
0A
#265000
1!
1@
1A
1G
18
0B
1H
#270000
0!
0@
0A
#275000
1!
1@
1A
1I
0G
08
17
1B
#280000
0!
0@
0A
#285000
1!
1@
1A
1G
18
1J
0B
0H
1M
0K
1P
0N
1Q
#290000
0!
0@
0A
#295000
1!
1@
1A
1R
0O
0L
0I
0G
08
07
06
05
14
0J
1B
0M
0P
1S
1K
1N
0Q
0S
0K
0N
1Q
1T
0T
#300000
0!
0@
0A
#305000
1!
1@
1A
1G
18
0B
1H
#310000
0!
0@
0A
#315000
1!
1@
1A
1I
0G
08
17
1B
#320000
0!
0@
0A
#325000
1!
1@
1A
1G
18
1J
0B
0H
1K
#330000
0!
0@
0A
#335000
1!
1@
1A
1L
0I
0G
08
07
16
0J
1B
1M
0K
0M
1K
1N
0N
#340000
0!
0@
0A
#345000
1!
1@
1A
1G
18
0B
1H
#350000
0!
0@
0A
#355000
1!
1@
1A
1I
0G
08
17
1B
#360000
0!
0@
0A
#365000
1!
1@
1A
1G
18
1J
0B
0H
1M
0K
1N
#370000
0!
0@
0A
#375000
1!
1@
1A
1O
0L
0I
0G
08
07
06
15
0J
1B
0M
1P
1K
0N
0P
1S
0K
1N
0Q
0S
1Q
1T
0T
#380000
0!
0@
0A
#385000
1!
1@
1A
1G
18
0B
1H
#390000
0!
0@
0A
#395000
1!
1@
1A
1I
0G
08
17
1B
#400000
0!
0@
0A
#405000
1!
1@
1A
1G
18
1J
0B
0H
1K
#410000
0!
0@
0A
#415000
1!
1@
1A
1L
0I
0G
08
07
16
0J
1B
1M
0K
0M
1P
1K
0N
0P
1S
1N
0Q
0S
1Q
1T
0T
#420000
0!
0@
0A
#425000
1!
1@
1A
1G
18
0B
1H
#430000
0!
0@
0A
#435000
1!
1@
1A
1I
0G
08
17
1B
#440000
0!
0@
0A
#445000
1!
1@
1A
1G
18
1J
0B
0H
1M
0K
1P
0N
1S
0Q
1T
#450000
0!
0@
0A
#455000
1!
1@
1A
1U
0R
0O
0L
0I
0G
08
07
06
05
04
13
0J
1B
0M
0P
0S
1V
1K
1N
1Q
0T
0V
0K
0N
0Q
1T
1W
0W
#460000
0!
0@
0A
#465000
1!
1@
1A
1G
18
0B
1H
#470000
0!
0@
0A
#475000
1!
1@
1A
1I
0G
08
17
1B
#480000
0!
0@
0A
#485000
1!
1@
1A
1G
18
1J
0B
0H
1K
#490000
0!
0@
0A
#495000
1!
1@
1A
1L
0I
0G
08
07
16
0J
1B
1M
0K
0M
1K
1N
0N
#500000
0!
0@
0A
#505000
1!
1@
1A
1G
18
0B
1H
#510000
0!
0@
0A
#515000
1!
1@
1A
1I
0G
08
17
1B
#520000
0!
0@
0A
#525000
1!
1@
1A
1G
18
1J
0B
0H
1M
0K
1N
#530000
0!
0@
0A
#535000
1!
1@
1A
1O
0L
0I
0G
08
07
06
15
0J
1B
0M
1P
1K
0N
0P
0K
1N
1Q
0Q
#540000
0!
0@
0A
#545000
1!
1@
1A
1G
18
0B
1H
#550000
0!
0@
0A
#555000
1!
1@
1A
1I
0G
08
17
1B
#560000
0!
0@
0A
#565000
1!
1@
1A
1G
18
1J
0B
0H
1K
#570000
0!
0@
0A
#575000
1!
1@
1A
1L
0I
0G
08
07
16
0J
1B
1M
0K
0M
1P
1K
0N
0P
1N
1Q
0Q
#580000
0!
0@
0A
#585000
1!
1@
1A
1G
18
0B
1H
#590000
0!
0@
0A
#595000
1!
1@
1A
1I
0G
08
17
1B
#600000
0!
0@
0A
#605000
1!
1@
1A
1G
18
1J
0B
0H
1M
0K
1P
0N
1Q
#610000
0$
0!
0D
0@
0A
0F
#615000
1!
1@
1A
#620000
0!
0@
0A
#625000
1!
1@
1A
#630000
0!
0@
0A
#635000
1!
1@
1A
#640000
0!
0@
0A
#645000
1!
1@
1A
#650000
0!
0@
0A
#655000
1!
1@
1A
#660000
0!
0@
0A
#665000
1!
1@
1A
#670000
0!
0@
0A
#675000
1!
1@
1A
#680000
0!
0@
0A
#685000
1!
1@
1A
#690000
0!
0@
0A
#695000
1!
1@
1A
#700000
0!
0@
0A
#705000
1!
1@
1A
#710000
0!
0@
0A
#715000
1!
1@
1A
#720000
0!
0@
0A
#725000
1!
1@
1A
#730000
0!
0@
0A
#735000
1!
1@
1A
#740000
0!
0@
0A
#745000
1!
1@
1A
#750000
0!
0@
0A
#755000
1!
1@
1A
#760000
0!
0@
0A
#765000
1!
1@
1A
#770000
0!
0@
0A
#775000
1!
1@
1A
#780000
0!
0@
0A
#785000
1!
1@
1A
#790000
0!
0@
0A
#795000
1!
1@
1A
#800000
0!
0@
0A
#805000
1!
1@
1A
#810000
0!
0@
0A
#815000
1!
1@
1A
#820000
0!
0@
0A
#825000
1!
1@
1A
#830000
0!
0@
0A
#835000
1!
1@
1A
#840000
0!
0@
0A
#845000
1!
1@
1A
#850000
0!
0@
0A
#855000
1!
1@
1A
#860000
0!
0@
0A
#865000
1!
1@
1A
#870000
0!
0@
0A
#875000
1!
1@
1A
#880000
0!
0@
0A
#885000
1!
1@
1A
#890000
0!
0@
0A
#895000
1!
1@
1A
#900000
0!
0@
0A
#905000
1!
1@
1A
#910000
0!
0@
0A
#915000
1!
1@
1A
#920000
0!
0@
0A
#925000
1!
1@
1A
#930000
0!
0@
0A
#935000
1!
1@
1A
#940000
0!
0@
0A
#945000
1!
1@
1A
#950000
0!
0@
0A
#955000
1!
1@
1A
#960000
0!
0@
0A
#965000
1!
1@
1A
#970000
0!
0@
0A
#975000
1!
1@
1A
#980000
0!
0@
0A
#985000
1!
1@
1A
#990000
0!
0@
0A
#995000
1!
1@
1A
